clock_wave.vcd
$date
    Feb 25, 2026  12:14:05
$end
$version
    TOOL:	ncsim(64)	15.20-s086
$end
$timescale
    1 ps
$end

$scope module clock_tb $end
$var reg       1 !    clk  $end

$scope module vif $end
$var wire      1 "    clk  $end
$var reg       1 #    reset  $end
$var reg       6 $    seconds [5:0] $end
$var reg       6 %    minutes [5:0] $end
$upscope $end


$scope module dut $end
$var wire      1 "    clk  $end
$var wire      1 &    reset  $end
$var reg       6 '    seconds [5:0] $end
$var reg       6 (    minutes [5:0] $end
$upscope $end

$upscope $end

$enddefinitions $end
$dumpvars
0!
0"
1#
bx $
bx %
1&
bx '
bx (
$end
#5000
1!
1"
b0 '
b0 (
b0 %
b0 $
#10000
0!
0"
#15000
1!
1"
0#
0&
#20000
0!
0"
#25000
1!
1"
b1 '
b1 $
#30000
0!
0"
#35000
1!
1"
b10 '
b10 $
#40000
0!
0"
#45000
1!
1"
b11 '
b11 $
#50000
0!
0"
#55000
1!
1"
b100 '
b100 $
#60000
0!
0"
#65000
1!
1"
b101 '
b101 $
#70000
0!
0"
#75000
1!
1"
b110 '
b110 $
#80000
0!
0"
#85000
1!
1"
b111 '
b111 $
#90000
0!
0"
#95000
1!
1"
b1000 '
b1000 $
#100000
0!
0"
#105000
1!
1"
b1001 '
b1001 $
#110000
0!
0"
#115000
1!
1"
b1010 '
b1010 $
#120000
0!
0"
#125000
1!
1"
b1011 '
b1011 $
#130000
0!
0"
#135000
1!
1"
b1100 '
b1100 $
#140000
0!
0"
#145000
1!
1"
b1101 '
b1101 $
#150000
0!
0"
#155000
1!
1"
b1110 '
b1110 $
#160000
0!
0"
#165000
1!
1"
b1111 '
b1111 $
#170000
0!
0"
#175000
1!
1"
b10000 '
b10000 $
#180000
0!
0"
#185000
1!
1"
b10001 '
b10001 $
#190000
0!
0"
#195000
1!
1"
b10010 '
b10010 $
#200000
0!
0"
#205000
1!
1"
b10011 '
b10011 $
#210000
0!
0"
#215000
1!
1"
b10100 '
b10100 $
#220000
0!
0"
#225000
1!
1"
b10101 '
b10101 $
#230000
0!
0"
#235000
1!
1"
b10110 '
b10110 $
#240000
0!
0"
#245000
1!
1"
b10111 '
b10111 $
#250000
0!
0"
#255000
1!
1"
b11000 '
b11000 $
#260000
0!
0"
#265000
1!
1"
b11001 '
b11001 $
#270000
0!
0"
#275000
1!
1"
b11010 '
b11010 $
#280000
0!
0"
#285000
1!
1"
b11011 '
b11011 $
#290000
0!
0"
#295000
1!
1"
b11100 '
b11100 $
#300000
0!
0"
#305000
1!
1"
b11101 '
b11101 $
#310000
0!
0"
#315000
1!
1"
b11110 '
b11110 $
#320000
0!
0"
#325000
1!
1"
b11111 '
b11111 $
#330000
0!
0"
#335000
1!
1"
b100000 '
b100000 $
#340000
0!
0"
#345000
1!
1"
b100001 '
b100001 $
#350000
0!
0"
#355000
1!
1"
b100010 '
b100010 $
#360000
0!
0"
#365000
1!
1"
b100011 '
b100011 $
#370000
0!
0"
#375000
1!
1"
b100100 '
b100100 $
#380000
0!
0"
#385000
1!
1"
b100101 '
b100101 $
#390000
0!
0"
#395000
1!
1"
b100110 '
b100110 $
#400000
0!
0"
#405000
1!
1"
b100111 '
b100111 $
#410000
0!
0"
#415000
1!
1"
b101000 '
b101000 $
#420000
0!
0"
#425000
1!
1"
b101001 '
b101001 $
#430000
0!
0"
#435000
1!
1"
b101010 '
b101010 $
#440000
0!
0"
#445000
1!
1"
b101011 '
b101011 $
#450000
0!
0"
#455000
1!
1"
b101100 '
b101100 $
#460000
0!
0"
#465000
1!
1"
b101101 '
b101101 $
#470000
0!
0"
#475000
1!
1"
b101110 '
b101110 $
#480000
0!
0"
#485000
1!
1"
b101111 '
b101111 $
#490000
0!
0"
#495000
1!
1"
b110000 '
b110000 $
#500000
0!
0"
#505000
1!
1"
b110001 '
b110001 $
#510000
0!
0"
#515000
1!
1"
b110010 '
b110010 $
#520000
0!
0"
#525000
1!
1"
b110011 '
b110011 $
#530000
0!
0"
#535000
1!
1"
b110100 '
b110100 $
#540000
0!
0"
#545000
1!
1"
b110101 '
b110101 $
#550000
0!
0"
#555000
1!
1"
b110110 '
b110110 $
#560000
0!
0"
#565000
1!
1"
b110111 '
b110111 $
#570000
0!
0"
#575000
1!
1"
b111000 '
b111000 $
#580000
0!
0"
#585000
1!
1"
b111001 '
b111001 $
#590000
0!
0"
#595000
1!
1"
b111010 '
b111010 $
#600000
0!
0"
#605000
1!
1"
b111011 '
b111011 $
#610000
0!
0"
#615000
1!
1"
b0 '
b1 (
b1 %
b0 $
#620000
0!
0"
#625000
1!
1"
b1 '
b1 $
#630000
0!
0"
#635000
1!
1"
b10 '
b10 $
#640000
0!
0"
#645000
1!
1"
b11 '
b11 $
#650000
0!
0"
#655000
1!
1"
b100 '
b100 $
#660000
0!
0"
#665000
1!
1"
b101 '
b101 $
#670000
0!
0"
#675000
1!
1"
b110 '
b110 $
#680000
0!
0"
#685000
1!
1"
b111 '
b111 $
#690000
0!
0"
#695000
1!
1"
b1000 '
b1000 $
#700000
0!
0"
#705000
1!
1"
b1001 '
b1001 $
#710000
0!
0"
#715000
1!
1"
b1010 '
b1010 $
#720000
0!
0"
#725000
1!
1"
b1011 '
b1011 $
#730000
0!
0"
#735000
1!
1"
b1100 '
b1100 $
#740000
0!
0"
#745000
1!
1"
b1101 '
b1101 $
#750000
0!
0"
#755000
1!
1"
b1110 '
b1110 $
#760000
0!
0"
#765000
1!
1"
b1111 '
b1111 $
#770000
0!
0"
#775000
1!
1"
b10000 '
b10000 $
#780000
0!
0"
#785000
1!
1"
b10001 '
b10001 $
#790000
0!
0"
#795000
1!
1"
b10010 '
b10010 $
#800000
0!
0"
#805000
1!
1"
b10011 '
b10011 $
#810000
0!
0"
#815000
1!
1"
b10100 '
b10100 $
#820000
0!
0"
#825000
1!
1"
b10101 '
b10101 $
#830000
0!
0"
#835000
1!
1"
b10110 '
b10110 $
#840000
0!
0"
#845000
1!
1"
b10111 '
b10111 $
#850000
0!
0"
#855000
1!
1"
b11000 '
b11000 $
#860000
0!
0"
#865000
1!
1"
b11001 '
b11001 $
#870000
0!
0"
#875000
1!
1"
b11010 '
b11010 $
#880000
0!
0"
#885000
1!
1"
b11011 '
b11011 $
#890000
0!
0"
#895000
1!
1"
b11100 '
b11100 $
#900000
0!
0"
#905000
1!
1"
b11101 '
b11101 $
#910000
0!
0"
#915000
1!
1"
b11110 '
b11110 $
#920000
0!
0"
#925000
1!
1"
b11111 '
b11111 $
#930000
0!
0"
#935000
1!
1"
b100000 '
b100000 $
#940000
0!
0"
#945000
1!
1"
b100001 '
b100001 $
#950000
0!
0"
#955000
1!
1"
b100010 '
b100010 $
#960000
0!
0"
#965000
1!
1"
b100011 '
b100011 $
#970000
0!
0"
#975000
1!
1"
b100100 '
b100100 $
#980000
0!
0"
#985000
1!
1"
b100101 '
b100101 $
#990000
0!
0"
#995000
1!
1"
b100110 '
b100110 $
#1000000
0!
0"
#1005000
1!
1"
b100111 '
b100111 $
#1010000
0!
0"
#1015000
1!
1"
b101000 '
b101000 $
#1020000
0!
0"
#1025000
1!
1"
b101001 '
b101001 $
#1030000
0!
0"
#1035000
1!
1"
b101010 '
b101010 $
#1040000
0!
0"
#1045000
1!
1"
b101011 '
b101011 $
#1050000
0!
0"
#1055000
1!
1"
b101100 '
b101100 $
#1060000
0!
0"
#1065000
1!
1"
b101101 '
b101101 $
#1070000
0!
0"
#1075000
1!
1"
b101110 '
b101110 $
#1080000
0!
0"
#1085000
1!
1"
b101111 '
b101111 $
#1090000
0!
0"
#1095000
1!
1"
b110000 '
b110000 $
#1100000
0!
0"
#1105000
1!
1"
b110001 '
b110001 $
#1110000
0!
0"
#1115000
1!
1"
b110010 '
b110010 $
#1120000
0!
0"
#1125000
1!
1"
b110011 '
b110011 $
#1130000
0!
0"
#1135000
1!
1"
b110100 '
b110100 $
#1140000
0!
0"
#1145000
1!
1"
b110101 '
b110101 $
#1150000
0!
0"
#1155000
1!
1"
b110110 '
b110110 $
#1160000
0!
0"
#1165000
1!
1"
b110111 '
b110111 $
#1170000
0!
0"
#1175000
1!
1"
b111000 '
b111000 $
#1180000
0!
0"
#1185000
1!
1"
b111001 '
b111001 $
#1190000
0!
0"
#1195000
1!
1"
b111010 '
b111010 $
#1200000
0!
0"
#1205000
1!
1"
b111011 '
b111011 $
#1210000
0!
0"
#1215000
1!
1"
b0 '
b10 (
b10 %
b0 $
#1220000
0!
0"
#1225000
1!
1"
b1 '
b1 $
#1230000
0!
0"
#1235000
1!
1"
b10 '
b10 $
#1240000
0!
0"
#1245000
1!
1"
b11 '
b11 $
#1250000
0!
0"
#1255000
1!
1"
b100 '
b100 $
#1260000
0!
0"
#1265000
1!
1"
b101 '
b101 $
#1270000
0!
0"
#1275000
1!
1"
b110 '
b110 $
#1280000
0!
0"
#1285000
1!
1"
b111 '
b111 $
#1290000
0!
0"
#1295000
1!
1"
b1000 '
b1000 $
#1300000
0!
0"
#1305000
1!
1"
b1001 '
b1001 $
#1310000
0!
0"
#1315000
1!
1"
b1010 '
b1010 $
#1320000
0!
0"
#1325000
1!
1"
b1011 '
b1011 $
#1330000
0!
0"
#1335000
1!
1"
b1100 '
b1100 $
#1340000
0!
0"
#1345000
1!
1"
b1101 '
b1101 $
#1350000
0!
0"
#1355000
1!
1"
b1110 '
b1110 $
#1360000
0!
0"
#1365000
1!
1"
b1111 '
b1111 $
#1370000
0!
0"
#1375000
1!
1"
b10000 '
b10000 $
#1380000
0!
0"
#1385000
1!
1"
b10001 '
b10001 $
#1390000
0!
0"
#1395000
1!
1"
b10010 '
b10010 $
#1400000
0!
0"
#1405000
1!
1"
b10011 '
b10011 $
#1410000
0!
0"
#1415000
1!
1"
b10100 '
b10100 $
#1420000
0!
0"
#1425000
1!
1"
b10101 '
b10101 $
#1430000
0!
0"
#1435000
1!
1"
b10110 '
b10110 $
#1440000
0!
0"
#1445000
1!
1"
b10111 '
b10111 $
#1450000
0!
0"
#1455000
1!
1"
b11000 '
b11000 $
#1460000
0!
0"
#1465000
1!
1"
b11001 '
b11001 $
#1470000
0!
0"
#1475000
1!
1"
b11010 '
b11010 $
#1480000
0!
0"
#1485000
1!
1"
b11011 '
b11011 $
#1490000
0!
0"
#1495000
1!
1"
b11100 '
b11100 $
#1500000
0!
0"
#1505000
1!
1"
b11101 '
b11101 $
#1510000
0!
0"
#1515000
1!
1"
b11110 '
b11110 $
#1520000
0!
0"
#1525000
1!
1"
b11111 '
b11111 $
#1530000
0!
0"
#1535000
1!
1"
b100000 '
b100000 $
#1540000
0!
0"
#1545000
1!
1"
b100001 '
b100001 $
#1550000
0!
0"
#1555000
1!
1"
b100010 '
b100010 $
#1560000
0!
0"
#1565000
1!
1"
b100011 '
b100011 $
#1570000
0!
0"
#1575000
1!
1"
b100100 '
b100100 $
#1580000
0!
0"
#1585000
1!
1"
b100101 '
b100101 $
#1590000
0!
0"
#1595000
1!
1"
b100110 '
b100110 $
#1600000
0!
0"
#1605000
1!
1"
b100111 '
b100111 $
#1610000
0!
0"
#1615000
1!
1"
b101000 '
b101000 $
#1620000
0!
0"
#1625000
1!
1"
b101001 '
b101001 $
#1630000
0!
0"
#1635000
1!
1"
b101010 '
b101010 $
#1640000
0!
0"
#1645000
1!
1"
b101011 '
b101011 $
#1650000
0!
0"
#1655000
1!
1"
b101100 '
b101100 $
#1660000
0!
0"
#1665000
1!
1"
b101101 '
b101101 $
#1670000
0!
0"
#1675000
1!
1"
b101110 '
b101110 $
#1680000
0!
0"
#1685000
1!
1"
b101111 '
b101111 $
#1690000
0!
0"
#1695000
1!
1"
b110000 '
b110000 $
#1700000
0!
0"
#1705000
1!
1"
b110001 '
b110001 $
#1710000
0!
0"
#1715000
1!
1"
b110010 '
b110010 $
#1720000
0!
0"
#1725000
1!
1"
b110011 '
b110011 $
#1730000
0!
0"
#1735000
1!
1"
b110100 '
b110100 $
#1740000
0!
0"
#1745000
1!
1"
b110101 '
b110101 $
#1750000
0!
0"
#1755000
1!
1"
b110110 '
b110110 $
#1760000
0!
0"
#1765000
1!
1"
b110111 '
b110111 $
#1770000
0!
0"
#1775000
1!
1"
b111000 '
b111000 $
#1780000
0!
0"
#1785000
1!
1"
b111001 '
b111001 $
#1790000
0!
0"
#1795000
1!
1"
b111010 '
b111010 $
#1800000
0!
0"
#1805000
1!
1"
b111011 '
b111011 $
#1810000
0!
0"
#1815000
1!
1"
b0 '
b11 (
b11 %
b0 $
#1820000
0!
0"
#1825000
1!
1"
b1 '
b1 $
#1830000
0!
0"
#1835000
1!
1"
b10 '
b10 $
#1840000
0!
0"
#1845000
1!
1"
b11 '
b11 $
#1850000
0!
0"
#1855000
1!
1"
b100 '
b100 $
#1860000
0!
0"
#1865000
1!
1"
b101 '
b101 $
#1870000
0!
0"
#1875000
1!
1"
b110 '
b110 $
#1880000
0!
0"
#1885000
1!
1"
b111 '
b111 $
#1890000
0!
0"
#1895000
1!
1"
b1000 '
b1000 $
#1900000
0!
0"
#1905000
1!
1"
b1001 '
b1001 $
#1910000
0!
0"
#1915000
1!
1"
b1010 '
b1010 $
#1920000
0!
0"
#1925000
1!
1"
b1011 '
b1011 $
#1930000
0!
0"
#1935000
1!
1"
b1100 '
b1100 $
#1940000
0!
0"
#1945000
1!
1"
b1101 '
b1101 $
#1950000
0!
0"
#1955000
1!
1"
b1110 '
b1110 $
#1960000
0!
0"
#1965000
1!
1"
b1111 '
b1111 $
#1970000
0!
0"
#1975000
1!
1"
b10000 '
b10000 $
#1980000
0!
0"
#1985000
1!
1"
b10001 '
b10001 $
#1990000
0!
0"
#1995000
1!
1"
b10010 '
b10010 $
#2000000
0!
0"
#2005000
1!
1"
b10011 '
b10011 $
#2010000
0!
0"
#2015000
1!
1"
b10100 '
b10100 $
#2020000
0!
0"
#2025000
1!
1"
b10101 '
b10101 $
#2030000
0!
0"
#2035000
1!
1"
b10110 '
b10110 $
#2040000
0!
0"
#2045000
1!
1"
b10111 '
b10111 $
#2050000
0!
0"
#2055000
1!
1"
b11000 '
b11000 $
#2060000
0!
0"
#2065000
1!
1"
b11001 '
b11001 $
#2070000
0!
0"
#2075000
1!
1"
b11010 '
b11010 $
#2080000
0!
0"
#2085000
1!
1"
b11011 '
b11011 $
#2090000
0!
0"
#2095000
1!
1"
b11100 '
b11100 $
#2100000
0!
0"
#2105000
1!
1"
b11101 '
b11101 $
#2110000
0!
0"
#2115000
1!
1"
b11110 '
b11110 $
#2120000
0!
0"
#2125000
1!
1"
b11111 '
b11111 $
#2130000
0!
0"
#2135000
1!
1"
b100000 '
b100000 $
#2140000
0!
0"
#2145000
1!
1"
b100001 '
b100001 $
#2150000
0!
0"
#2155000
1!
1"
b100010 '
b100010 $
#2160000
0!
0"
#2165000
1!
1"
b100011 '
b100011 $
#2170000
0!
0"
#2175000
1!
1"
b100100 '
b100100 $
#2180000
0!
0"
#2185000
1!
1"
b100101 '
b100101 $
#2190000
0!
0"
#2195000
1!
1"
b100110 '
b100110 $
#2200000
0!
0"
#2205000
1!
1"
b100111 '
b100111 $
#2210000
0!
0"
#2215000
1!
1"
b101000 '
b101000 $
#2220000
0!
0"
#2225000
1!
1"
b101001 '
b101001 $
#2230000
0!
0"
#2235000
1!
1"
b101010 '
b101010 $
#2240000
0!
0"
#2245000
1!
1"
b101011 '
b101011 $
#2250000
0!
0"
#2255000
1!
1"
b101100 '
b101100 $
#2260000
0!
0"
#2265000
1!
1"
b101101 '
b101101 $
#2270000
0!
0"
#2275000
1!
1"
b101110 '
b101110 $
#2280000
0!
0"
#2285000
1!
1"
b101111 '
b101111 $
#2290000
0!
0"
#2295000
1!
1"
b110000 '
b110000 $
#2300000
0!
0"
#2305000
1!
1"
b110001 '
b110001 $
#2310000
0!
0"
#2315000
1!
1"
b110010 '
b110010 $
#2320000
0!
0"
#2325000
1!
1"
b110011 '
b110011 $
#2330000
0!
0"
#2335000
1!
1"
b110100 '
b110100 $
#2340000
0!
0"
#2345000
1!
1"
b110101 '
b110101 $
#2350000
0!
0"
#2355000
1!
1"
b110110 '
b110110 $
#2360000
0!
0"
#2365000
1!
1"
b110111 '
b110111 $
#2370000
0!
0"
#2375000
1!
1"
b111000 '
b111000 $
#2380000
0!
0"
#2385000
1!
1"
b111001 '
b111001 $
#2390000
0!
0"
#2395000
1!
1"
b111010 '
b111010 $
#2400000
0!
0"
#2405000
1!
1"
b111011 '
b111011 $
#2410000
0!
0"
#2415000
1!
1"
b0 '
b100 (
b100 %
b0 $
#2420000
0!
0"
#2425000
1!
1"
b1 '
b1 $
#2430000
0!
0"
#2435000
1!
1"
b10 '
b10 $
#2440000
0!
0"
#2445000
1!
1"
b11 '
b11 $
#2450000
0!
0"
#2455000
1!
1"
b100 '
b100 $
#2460000
0!
0"
#2465000
1!
1"
b101 '
b101 $
#2470000
0!
0"
#2475000
1!
1"
b110 '
b110 $
#2480000
0!
0"
#2485000
1!
1"
b111 '
b111 $
#2490000
0!
0"
#2495000
1!
1"
b1000 '
b1000 $
#2500000
0!
0"
#2505000
1!
1"
b1001 '
b1001 $
#2510000
0!
0"
#2515000
1!
1"
b1010 '
b1010 $
#2520000
0!
0"
#2525000
1!
1"
b1011 '
b1011 $
#2530000
0!
0"
#2535000
1!
1"
b1100 '
b1100 $
#2540000
0!
0"
#2545000
1!
1"
b1101 '
b1101 $
#2550000
0!
0"
#2555000
1!
1"
b1110 '
b1110 $
#2560000
0!
0"
#2565000
1!
1"
b1111 '
b1111 $
#2570000
0!
0"
#2575000
1!
1"
b10000 '
b10000 $
#2580000
0!
0"
#2585000
1!
1"
b10001 '
b10001 $
#2590000
0!
0"
#2595000
1!
1"
b10010 '
b10010 $
#2600000
0!
0"
#2605000
1!
1"
b10011 '
b10011 $
#2610000
0!
0"
#2615000
1!
1"
b10100 '
b10100 $
#2620000
0!
0"
#2625000
1!
1"
b10101 '
b10101 $
#2630000
0!
0"
#2635000
1!
1"
b10110 '
b10110 $
#2640000
0!
0"
#2645000
1!
1"
b10111 '
b10111 $
#2650000
0!
0"
#2655000
1!
1"
b11000 '
b11000 $
#2660000
0!
0"
#2665000
1!
1"
b11001 '
b11001 $
#2670000
0!
0"
#2675000
1!
1"
b11010 '
b11010 $
#2680000
0!
0"
#2685000
1!
1"
b11011 '
b11011 $
#2690000
0!
0"
#2695000
1!
1"
b11100 '
b11100 $
#2700000
0!
0"
#2705000
1!
1"
b11101 '
b11101 $
#2710000
0!
0"
#2715000
1!
1"
b11110 '
b11110 $
#2720000
0!
0"
#2725000
1!
1"
b11111 '
b11111 $
#2730000
0!
0"
#2735000
1!
1"
b100000 '
b100000 $
#2740000
0!
0"
#2745000
1!
1"
b100001 '
b100001 $
#2750000
0!
0"
#2755000
1!
1"
b100010 '
b100010 $
#2760000
0!
0"
#2765000
1!
1"
b100011 '
b100011 $
#2770000
0!
0"
#2775000
1!
1"
b100100 '
b100100 $
#2780000
0!
0"
#2785000
1!
1"
b100101 '
b100101 $
#2790000
0!
0"
#2795000
1!
1"
b100110 '
b100110 $
#2800000
0!
0"
#2805000
1!
1"
b100111 '
b100111 $
#2810000
0!
0"
#2815000
1!
1"
b101000 '
b101000 $
#2820000
0!
0"
#2825000
1!
1"
b101001 '
b101001 $
#2830000
0!
0"
#2835000
1!
1"
b101010 '
b101010 $
#2840000
0!
0"
#2845000
1!
1"
b101011 '
b101011 $
#2850000
0!
0"
#2855000
1!
1"
b101100 '
b101100 $
#2860000
0!
0"
#2865000
1!
1"
b101101 '
b101101 $
#2870000
0!
0"
#2875000
1!
1"
b101110 '
b101110 $
#2880000
0!
0"
#2885000
1!
1"
b101111 '
b101111 $
#2890000
0!
0"
#2895000
1!
1"
b110000 '
b110000 $
#2900000
0!
0"
#2905000
1!
1"
b110001 '
b110001 $
#2910000
0!
0"
#2915000
1!
1"
b110010 '
b110010 $
#2920000
0!
0"
#2925000
1!
1"
b110011 '
b110011 $
#2930000
0!
0"
#2935000
1!
1"
b110100 '
b110100 $
#2940000
0!
0"
#2945000
1!
1"
b110101 '
b110101 $
#2950000
0!
0"
#2955000
1!
1"
b110110 '
b110110 $
#2960000
0!
0"
#2965000
1!
1"
b110111 '
b110111 $
#2970000
0!
0"
#2975000
1!
1"
b111000 '
b111000 $
#2980000
0!
0"
#2985000
1!
1"
b111001 '
b111001 $
#2990000
0!
0"
#2995000
1!
1"
b111010 '
b111010 $
#3000000
0!
0"
#3005000
1!
1"
b111011 '
b111011 $
#3010000
0!
0"
#3015000
1!
1"
b0 '
b101 (
b101 %
b0 $
#3020000
0!
0"
#3025000
1!
1"
b1 '
b1 $
#3030000
0!
0"
#3035000
1!
1"
b10 '
b10 $
#3040000
0!
0"
#3045000
1!
1"
b11 '
b11 $
#3050000
0!
0"
#3055000
1!
1"
b100 '
b100 $
#3060000
0!
0"
#3065000
1!
1"
b101 '
b101 $
#3070000
0!
0"
#3075000
1!
1"
b110 '
b110 $
#3080000
0!
0"
#3085000
1!
1"
b111 '
b111 $
#3090000
0!
0"
#3095000
1!
1"
b1000 '
b1000 $
#3100000
0!
0"
#3105000
1!
1"
b1001 '
b1001 $
#3110000
0!
0"
#3115000
1!
1"
b1010 '
b1010 $
#3120000
0!
0"
#3125000
1!
1"
b1011 '
b1011 $
#3130000
0!
0"
#3135000
1!
1"
b1100 '
b1100 $
#3140000
0!
0"
#3145000
1!
1"
b1101 '
b1101 $
#3150000
0!
0"
#3155000
1!
1"
b1110 '
b1110 $
#3160000
0!
0"
#3165000
1!
1"
b1111 '
b1111 $
#3170000
0!
0"
#3175000
1!
1"
b10000 '
b10000 $
#3180000
0!
0"
#3185000
1!
1"
b10001 '
b10001 $
#3190000
0!
0"
#3195000
1!
1"
b10010 '
b10010 $
#3200000
0!
0"
#3205000
1!
1"
b10011 '
b10011 $
#3210000
0!
0"
#3215000
1!
1"
b10100 '
b10100 $
#3220000
0!
0"
#3225000
1!
1"
b10101 '
b10101 $
#3230000
0!
0"
#3235000
1!
1"
b10110 '
b10110 $
#3240000
0!
0"
#3245000
1!
1"
b10111 '
b10111 $
#3250000
0!
0"
#3255000
1!
1"
b11000 '
b11000 $
#3260000
0!
0"
#3265000
1!
1"
b11001 '
b11001 $
#3270000
0!
0"
#3275000
1!
1"
b11010 '
b11010 $
#3280000
0!
0"
#3285000
1!
1"
b11011 '
b11011 $
#3290000
0!
0"
#3295000
1!
1"
b11100 '
b11100 $
#3300000
0!
0"
#3305000
1!
1"
b11101 '
b11101 $
#3310000
0!
0"
#3315000
1!
1"
b11110 '
b11110 $
#3320000
0!
0"
#3325000
1!
1"
b11111 '
b11111 $
#3330000
0!
0"
#3335000
1!
1"
b100000 '
b100000 $
#3340000
0!
0"
#3345000
1!
1"
b100001 '
b100001 $
#3350000
0!
0"
#3355000
1!
1"
b100010 '
b100010 $
#3360000
0!
0"
#3365000
1!
1"
b100011 '
b100011 $
#3370000
0!
0"
#3375000
1!
1"
b100100 '
b100100 $
#3380000
0!
0"
#3385000
1!
1"
b100101 '
b100101 $
#3390000
0!
0"
#3395000
1!
1"
b100110 '
b100110 $
#3400000
0!
0"
#3405000
1!
1"
b100111 '
b100111 $
#3410000
0!
0"
#3415000
1!
1"
b101000 '
b101000 $
#3420000
0!
0"
#3425000
1!
1"
b101001 '
b101001 $
#3430000
0!
0"
#3435000
1!
1"
b101010 '
b101010 $
#3440000
0!
0"
#3445000
1!
1"
b101011 '
b101011 $
#3450000
0!
0"
#3455000
1!
1"
b101100 '
b101100 $
#3460000
0!
0"
#3465000
1!
1"
b101101 '
b101101 $
#3470000
0!
0"
#3475000
1!
1"
b101110 '
b101110 $
#3480000
0!
0"
#3485000
1!
1"
b101111 '
b101111 $
#3490000
0!
0"
#3495000
1!
1"
b110000 '
b110000 $
#3500000
0!
0"
#3505000
1!
1"
b110001 '
b110001 $
#3510000
0!
0"
#3515000
1!
1"
b110010 '
b110010 $
#3520000
0!
0"
#3525000
1!
1"
b110011 '
b110011 $
#3530000
0!
0"
#3535000
1!
1"
b110100 '
b110100 $
#3540000
0!
0"
#3545000
1!
1"
b110101 '
b110101 $
#3550000
0!
0"
#3555000
1!
1"
b110110 '
b110110 $
#3560000
0!
0"
#3565000
1!
1"
b110111 '
b110111 $
#3570000
0!
0"
#3575000
1!
1"
b111000 '
b111000 $
#3580000
0!
0"
#3585000
1!
1"
b111001 '
b111001 $
#3590000
0!
0"
#3595000
1!
1"
b111010 '
b111010 $
#3600000
0!
0"
#3605000
1!
1"
b111011 '
b111011 $
#3610000
0!
0"
#3615000
1!
1"
b0 '
b110 (
b110 %
b0 $
#3620000
0!
0"
#3625000
1!
1"
b1 '
b1 $
#3630000
0!
0"
#3635000
1!
1"
b10 '
b10 $
#3640000
0!
0"
#3645000
1!
1"
b11 '
b11 $
#3650000
0!
0"
#3655000
1!
1"
b100 '
b100 $
#3660000
0!
0"
#3665000
1!
1"
b101 '
b101 $
#3670000
0!
0"
#3675000
1!
1"
b110 '
b110 $
#3680000
0!
0"
#3685000
1!
1"
b111 '
b111 $
#3690000
0!
0"
#3695000
1!
1"
b1000 '
b1000 $
#3700000
0!
0"
#3705000
1!
1"
b1001 '
b1001 $
#3710000
0!
0"
#3715000
1!
1"
b1010 '
b1010 $
#3720000
0!
0"
#3725000
1!
1"
b1011 '
b1011 $
#3730000
0!
0"
#3735000
1!
1"
b1100 '
b1100 $
#3740000
0!
0"
#3745000
1!
1"
b1101 '
b1101 $
#3750000
0!
0"
#3755000
1!
1"
b1110 '
b1110 $
#3760000
0!
0"
#3765000
1!
1"
b1111 '
b1111 $
#3770000
0!
0"
#3775000
1!
1"
b10000 '
b10000 $
#3780000
0!
0"
#3785000
1!
1"
b10001 '
b10001 $
#3790000
0!
0"
#3795000
1!
1"
b10010 '
b10010 $
#3800000
0!
0"
#3805000
1!
1"
b10011 '
b10011 $
#3810000
0!
0"
#3815000
1!
1"
b10100 '
b10100 $
#3820000
0!
0"
#3825000
1!
1"
b10101 '
b10101 $
#3830000
0!
0"
#3835000
1!
1"
b10110 '
b10110 $
#3840000
0!
0"
#3845000
1!
1"
b10111 '
b10111 $
#3850000
0!
0"
#3855000
1!
1"
b11000 '
b11000 $
#3860000
0!
0"
#3865000
1!
1"
b11001 '
b11001 $
#3870000
0!
0"
#3875000
1!
1"
b11010 '
b11010 $
#3880000
0!
0"
#3885000
1!
1"
b11011 '
b11011 $
#3890000
0!
0"
#3895000
1!
1"
b11100 '
b11100 $
#3900000
0!
0"
#3905000
1!
1"
b11101 '
b11101 $
#3910000
0!
0"
#3915000
1!
1"
b11110 '
b11110 $
#3920000
0!
0"
#3925000
1!
1"
b11111 '
b11111 $
#3930000
0!
0"
#3935000
1!
1"
b100000 '
b100000 $
#3940000
0!
0"
#3945000
1!
1"
b100001 '
b100001 $
#3950000
0!
0"
#3955000
1!
1"
b100010 '
b100010 $
#3960000
0!
0"
#3965000
1!
1"
b100011 '
b100011 $
#3970000
0!
0"
#3975000
1!
1"
b100100 '
b100100 $
#3980000
0!
0"
#3985000
1!
1"
b100101 '
b100101 $
#3990000
0!
0"
#3995000
1!
1"
b100110 '
b100110 $
#4000000
0!
0"
#4005000
1!
1"
b100111 '
b100111 $
#4010000
0!
0"
#4015000
1!
1"
b101000 '
b101000 $
#4020000
0!
0"
#4025000
1!
1"
b101001 '
b101001 $
#4030000
0!
0"
#4035000
1!
1"
b101010 '
b101010 $
#4040000
0!
0"
#4045000
1!
1"
b101011 '
b101011 $
#4050000
0!
0"
#4055000
1!
1"
b101100 '
b101100 $
#4060000
0!
0"
#4065000
1!
1"
b101101 '
b101101 $
#4070000
0!
0"
#4075000
1!
1"
b101110 '
b101110 $
#4080000
0!
0"
#4085000
1!
1"
b101111 '
b101111 $
#4090000
0!
0"
#4095000
1!
1"
b110000 '
b110000 $
#4100000
0!
0"
#4105000
1!
1"
b110001 '
b110001 $
#4110000
0!
0"
#4115000
1!
1"
b110010 '
b110010 $
#4120000
0!
0"
#4125000
1!
1"
b110011 '
b110011 $
#4130000
0!
0"
#4135000
1!
1"
b110100 '
b110100 $
#4140000
0!
0"
#4145000
1!
1"
b110101 '
b110101 $
#4150000
0!
0"
#4155000
1!
1"
b110110 '
b110110 $
#4160000
0!
0"
#4165000
1!
1"
b110111 '
b110111 $
#4170000
0!
0"
#4175000
1!
1"
b111000 '
b111000 $
#4180000
0!
0"
#4185000
1!
1"
b111001 '
b111001 $
#4190000
0!
0"
#4195000
1!
1"
b111010 '
b111010 $
#4200000
0!
0"
#4205000
1!
1"
b111011 '
b111011 $
#4210000
0!
0"
#4215000
1!
1"
b0 '
b111 (
b111 %
b0 $
#4220000
0!
0"
#4225000
1!
1"
b1 '
b1 $
#4230000
0!
0"
#4235000
1!
1"
b10 '
b10 $
#4240000
0!
0"
#4245000
1!
1"
b11 '
b11 $
#4250000
0!
0"
#4255000
1!
1"
b100 '
b100 $
#4260000
0!
0"
#4265000
1!
1"
b101 '
b101 $
#4270000
0!
0"
#4275000
1!
1"
b110 '
b110 $
#4280000
0!
0"
#4285000
1!
1"
b111 '
b111 $
#4290000
0!
0"
#4295000
1!
1"
b1000 '
b1000 $
#4300000
0!
0"
#4305000
1!
1"
b1001 '
b1001 $
#4310000
0!
0"
#4315000
1!
1"
b1010 '
b1010 $
#4320000
0!
0"
#4325000
1!
1"
b1011 '
b1011 $
#4330000
0!
0"
#4335000
1!
1"
b1100 '
b1100 $
#4340000
0!
0"
#4345000
1!
1"
b1101 '
b1101 $
#4350000
0!
0"
#4355000
1!
1"
b1110 '
b1110 $
#4360000
0!
0"
#4365000
1!
1"
b1111 '
b1111 $
#4370000
0!
0"
#4375000
1!
1"
b10000 '
b10000 $
#4380000
0!
0"
#4385000
1!
1"
b10001 '
b10001 $
